Model Fitting - Final Project
…
# Model tuning with hyperparameter grid
tree_fits <- tree_wkf %>%
  tune_grid(resamples = diabetes_5_fold,
            grid = tree_grid,
            metrics = metric_set(mn_log_loss))

# Collecting metrics to see which tuning parameter is the best
tree_fits %>%
  collect_metrics() %>%
  filter(.metric == "mn_log_loss") %>%
  arrange(mean)

# A tibble: 250 × 9
   cost_complexity tree_depth min_n .metric     .estimator  mean     n std_err
             <dbl>      <int> <int> <chr>       <chr>      <dbl> <int>   <dbl>
 1    0.0000000001         11     2 mn_log_loss binary     0.394     5 0.00644
 2    0.0000000178         11     2 mn_log_loss binary     0.394     5 0.00644
 3    0.00000316           11     2 mn_log_loss binary     0.394     5 0.00644
 4    0.0000000001         15     2 mn_log_loss binary     0.394     5 0.00644
 5    0.0000000178         15     2 mn_log_loss binary     0.394     5 0.00644
 6    0.00000316           15     2 mn_log_loss binary     0.394     5 0.00644
 7    0.0000000001         11     6 mn_log_loss binary     0.394     5 0.00644
 8    0.0000000178         11     6 mn_log_loss binary     0.394     5 0.00644
 9    0.00000316           11     6 mn_log_loss binary     0.394     5 0.00644
10    0.0000000001         15     6 mn_log_loss binary     0.394     5 0.00644
# ℹ 240 more rows
# ℹ 1 more variable: .config <chr>
…
